<?xml version="1.0" encoding="iso-8859-1"?>
<!-- Generator: Adobe Illustrator 16.0.0, SVG Export Plug-In . SVG Version: 6.00 Build 0)  -->
<!DOCTYPE svg PUBLIC "-//W3C//DTD SVG 1.1//EN" "http://www.w3.org/Graphics/SVG/1.1/DTD/svg11.dtd">
<svg version="1.1" id="Layer_1" xmlns="http://www.w3.org/2000/svg" xmlns:xlink="http://www.w3.org/1999/xlink" x="0px" y="0px"
	 width="10px" height="20px" viewBox="0 0 10 20" style="enable-background:new 0 0 10 20;" xml:space="preserve">
<path style="fill:#FFFFFF;" d="M6.654,19.172H2.563V9.679H0.518V6.406h2.045V4.441c0-2.669,1.155-4.258,4.433-4.258h2.729v3.273
	H8.021c-1.279,0-1.363,0.458-1.363,1.312L6.654,6.406h3.092L9.384,9.679H6.654V19.172z"/>
</svg>
